…
scale_colour_discrete = scale_colour_viridis_d
scale_fill_discrete = scale_fill_viridis_d
```

## Problem 1

``` r
data("instacart") 
instacart
```

    ## # A tibble: 1,384,617 × 15
    ##    order_id product_id add_to_cart_order reordered user_id eval_set order_number
    ##       <int>      <int>             <int>     <int>   <int> <chr>           <int>
    ##  1        1      49302                 1         1  112108 train               4
    ##  2        1      11109                 2         1  112108 train               4
    ##  3        1      10246                 3         0  112108 train               4
    ##  4        1      49683                 4         0  112108 train               4
    ##  5        1      43633                 5         1  112108 train               4
    ##  6        1      13176                 6         0  112108 train               4
    ##  7        1      47209                 7         0  112108 train               4
    ##  8        1      22035                 8         1  112108 train               4
    ##  9       36      39612                 1         0   79431 train              23
    ## 10       36      19660                 2         1   79431 train              23
    ## # … with 1,384,607 more rows, and 8 more variables: order_dow <int>,
    ## #   order_hour_of_day <int>, days_since_prior_order <int>, product_name <chr>,
    ## #   aisle_id <int>, department_id <int>, aisle <chr>, department <chr>

``` r
instacart %>% 
  group_by(order_id) %>% 
  summarize(n_obs = n()) 
```

    ## # A tibble: 131,209 × 2
    ##    order_id n_obs
    ##       <int> <int>
    ##  1        1     8
    ##  2       36     8
    ##  3       38     9
    ##  4       96     7
    ##  5       98    49
    ##  6      112    11
    ##  7      170    17
    ##  8      218     5
    ##  9      226    13
    ## 10      349    11
    ## # … with 131,199 more rows

``` r
instacart %>% 
  count(aisle_id)
```

    ## # A tibble: 134 × 2
    ##    aisle_id     n
    ##       <int> <int>
    ##  1        1  2936
    ##  2        2  3873
    ##  3        3 17449
    ##  4        4  9917
    ##  5        5  2905
    ##  6        6  1795
    ##  7        7  1526
    ##  8        8  1501
    ##  9        9  9736
    ## 10       10   448
    ## # … with 124 more rows
…
``` r
instacart %>% 
  group_by(aisle_id) %>% 
  summarize (n_obs = n()) %>% 
  arrange(desc(n_obs))
```

    ## # A tibble: 134 × 2
    ##    aisle_id  n_obs
    ##       <int>  <int>
    ##  1       83 150609
    ##  2       24 150473
    ##  3      123  78493
    ##  4      120  55240
    ##  5       21  41699
    ##  6      115  36617
    ##  7       84  32644
    ##  8      107  31269
    ##  9       91  26240
    ## 10      112  23635
    ## # … with 124 more rows
…
| product\_name    |   Sunday |   Monday |  Tuesday | Wednesday | Thursday |   Friday | Saturday |
|:-----------------|---------:|---------:|---------:|----------:|---------:|---------:|---------:|
| Coffee Ice Cream | 13.77419 | 14.31579 | 15.38095 |  15.31818 | 15.21739 | 12.26316 | 13.83333 |
| Pink Lady Apples | 13.44118 | 11.36000 | 11.70213 |  14.25000 | 11.55172 | 12.78431 | 11.93750 |

Mean hour of the day select items are ordered

## Problem 2

``` r
data("brfss_smart2010") 
brfss_smart2010
```

    ## # A tibble: 134,203 × 23
    ##     Year Locationabbr Locationdesc  Class  Topic Question   Response Sample_Size
    ##    <int> <chr>        <chr>         <chr>  <chr> <chr>      <chr>          <int>
    ##  1  2010 AL           AL - Jeffers… Healt… Over… How is yo… Excelle…          94
    ##  2  2010 AL           AL - Jeffers… Healt… Over… How is yo… Very go…         148
    ##  3  2010 AL           AL - Jeffers… Healt… Over… How is yo… Good             208
    ##  4  2010 AL           AL - Jeffers… Healt… Over… How is yo… Fair             107
    ##  5  2010 AL           AL - Jeffers… Healt… Over… How is yo… Poor              45
    ##  6  2010 AL           AL - Jeffers… Healt… Fair… Health St… Good or…         450
    ##  7  2010 AL           AL - Jeffers… Healt… Fair… Health St… Fair or…         152
    ##  8  2010 AL           AL - Jeffers… Healt… Heal… Do you ha… Yes              524
    ##  9  2010 AL           AL - Jeffers… Healt… Heal… Do you ha… No                77
    ## 10  2010 AL           AL - Jeffers… Healt… Unde… Adults ag… Yes              316
    ## # … with 134,193 more rows, and 15 more variables: Data_value <dbl>,
    ## #   Confidence_limit_Low <dbl>, Confidence_limit_High <dbl>,
    ## #   Display_order <int>, Data_value_unit <chr>, Data_value_type <chr>,
    ## #   Data_Value_Footnote_Symbol <chr>, Data_Value_Footnote <chr>,
    ## #   DataSource <chr>, ClassId <chr>, TopicId <chr>, LocationID <chr>,
    ## #   QuestionID <chr>, RESPID <chr>, GeoLocation <chr>
…
